Introduction to slurmjobs • slurmjobs
…
On a SLURM system, you’d run
job_info_df = job_info(user = NULL, partition = "shared")
here, to get every user’s jobs running on the “shared” partition. We’ll
load an example output directly here.

#   On a real SLURM system
print(job_info_df)
#> # A tibble: 100 × 10
#>    job_id max_rss_gb max_vmem_gb user  array_task_id name     partition  cpus
#>     <dbl>      <dbl>       <dbl> <chr> <chr>         <chr>    <fct>     <int>
#>  1 220842         NA          NA user1 NA            my_job_1 shared        2
#>  2 221913         NA          NA user2 60            my_job_2 shared        2
#>  3 221940         NA          NA user2 61            my_job_2 shared        2
#>  4 222446         NA          NA user2 73            my_job_2 shared        2
#>  5 225071         NA          NA user2 84            my_job_2 shared        2
#>  6 225430         NA          NA user2 88            my_job_2 shared        2
#>  7 226820         NA          NA user2 94            my_job_2 shared        2
#>  8 264086         NA          NA user2 66            my_job_3 shared        1
#>  9 265466         NA          NA user2 67            my_job_3 shared        2
#> 10 269608         NA          NA user2 13            my_job_4 shared        2
#> # ℹ 90 more rows
#> # ℹ 2 more variables: requested_mem_gb <dbl>, status <fct>
…
